{
    "workbench.colorTheme": "Hibou Dark",
    "files.exclude": {
        "**/.git": true,
        "**/.svn": true,
        "**/.hg": true,
        "**/CVS": true,
        "**/.DS_Store": true,
        "**/*.pyc": {"when": "$(basename).py"}, 
        "**/__pycache__": true
    },
    "files.watcherExclude": {
        "**/.var/**": true,
        "**/.git/objects/**": true,
        "**/.git/subtree-cache/**": true,
        "**/node_modules/**": true
    }
}
